<!-- Generator: Adobe Illustrator 23.0.1, SVG Export Plug-In  -->
<svg version="1.1" xmlns="http://www.w3.org/2000/svg" xmlns:xlink="http://www.w3.org/1999/xlink" x="0px" y="0px"
	 width="313.92px" height="313.92px" viewBox="0 0 156.96 62.25" style="enable-background:new 0 0 156.96 62.25;"
	 xml:space="preserve">
<style type="text/css">
	.st0{fill:none;}
	.st1{fill:#111111;}
</style>
<defs>
</defs>
<g>
	<rect class="st0" width="313.92" height="313.92"/>
	<g>
		<g>
			<g>
				<path class="st1" d="M48.35,24.94h2.24v-8.05h-2.24V14.9h6.61v1.99h-2.24v8.05h2.24v2.07h-6.61V24.94z"/>
				<path class="st1" d="M56.45,27.01v-9.76h1.89l0.2,1.95c0.53-1.34,1.63-2.19,3.31-2.19c2.36,0,3.62,1.56,3.62,3.99v6.01h-2.24
					v-5.47c0-1.6-0.51-2.6-2.11-2.6c-1.66,0-2.43,1.15-2.43,2.97v5.09H56.45z"/>
				<path class="st1" d="M66.18,17.25h2.33l2.53,7l2.63-7h2.34l-4.01,9.76h-1.99L66.18,17.25z"/>
				<path class="st1" d="M81.16,27.27c-3.29,0-4.91-1.9-4.91-4.92V22.1c0-1.05,0.2-1.92,0.61-2.7c0.82-1.53,2.31-2.39,4.36-2.39
					c1.68,0,2.87,0.58,3.65,1.51c0.78,0.93,1.12,2.14,1.12,3.4v1.04h-7.54c0.19,1.6,1.17,2.48,2.79,2.48c1.19,0,1.89-0.46,2.22-1.31
					h2.39C85.31,26.11,83.73,27.27,81.16,27.27z M78.48,21.2h5.3c-0.15-1.49-0.97-2.43-2.53-2.43C79.7,18.78,78.73,19.66,78.48,21.2
					z"/>
				<path class="st1" d="M87.65,27.01v-9.76h1.89l0.2,1.95c0.53-1.34,1.63-2.19,3.31-2.19c2.36,0,3.62,1.56,3.62,3.99v6.01h-2.24
					v-5.47c0-1.6-0.51-2.6-2.11-2.6c-1.66,0-2.43,1.15-2.43,2.97v5.09H87.65z"/>
				<path class="st1" d="M102.78,27.01c-0.92,0-1.63-0.14-2.11-0.36c-0.99-0.49-1.29-1.56-1.29-3.55v-3.89h-1.9v-1.89h0.87
					c0.32,0,0.54-0.03,0.7-0.1c0.32-0.15,0.42-0.53,0.48-1.32c0.02-0.42,0.03-1,0.03-1.29h1.9v2.63h2.58v1.97h-2.58v3.52
					c0,0.64,0.05,1.12,0.14,1.44c0.15,0.65,0.66,0.76,1.75,0.76h0.7v2.07H102.78z"/>
				<path class="st1" d="M108.32,27.27c-2.12,0-3.19-1.02-3.19-2.61c0-1.09,0.48-1.9,1.27-2.39c0.27-0.19,0.56-0.32,0.83-0.41
					c0.58-0.2,1.31-0.34,2.53-0.53c1.75-0.22,2.45-0.46,2.45-1.26c0-0.81-0.53-1.32-2.05-1.32c-1.61,0-2.34,0.7-2.41,1.95h-2.29
					c0.15-2.22,1.78-3.68,4.59-3.68c1.07,0,1.89,0.14,2.53,0.42c1.27,0.54,1.78,1.58,1.78,2.99v6.59h-1.8l-0.24-1.95
					C111.65,26.33,110.34,27.27,108.32,27.27z M110.75,25.11c0.95-0.6,1.48-1.58,1.48-2.51v-0.53c-0.41,0.29-1.09,0.49-1.97,0.63
					c-1.19,0.19-1.66,0.32-2.12,0.61c-0.39,0.26-0.58,0.59-0.58,1.02c0,0.82,0.51,1.22,1.53,1.22
					C109.73,25.55,110.27,25.4,110.75,25.11z"/>
				<path class="st1" d="M116.4,17.25h1.8l0.29,2.29c0.39-1.61,1.39-2.38,3.24-2.38h0.66v2.26h-0.97c-0.78,0-1.36,0.1-1.77,0.31
					c-0.82,0.39-1.07,1.24-1.07,2.77v4.52h-2.19V17.25z"/>
				<path class="st1" d="M123.76,14.72c0-1.09,0.49-1.46,1.48-1.46c0.99,0,1.48,0.37,1.48,1.46c0,1.05-0.48,1.48-1.48,1.48
					C124.17,16.19,123.76,15.84,123.76,14.72z M124.08,17.25h2.26v9.76h-2.26V17.25z"/>
				<path class="st1" d="M128.02,22.33v-0.25c0-1.09,0.22-2.02,0.65-2.77c0.85-1.49,2.36-2.29,4.28-2.29c0.99,0,1.82,0.19,2.55,0.59
					c1.49,0.8,2.38,2.31,2.38,4.47v0.25c0,1.07-0.2,1.95-0.61,2.68c-0.85,1.48-2.33,2.26-4.31,2.26
					C129.79,27.27,128.02,25.52,128.02,22.33z M135.61,22.29v-0.22c0-2-1.04-3.16-2.65-3.16c-1.6,0-2.67,1.09-2.67,3.16v0.22
					c0,1.94,0.98,3.02,2.65,3.02C134.63,25.31,135.61,24.23,135.61,22.29z"/>
				<path class="st1" d="M50.92,46.09c-2.5,0-4.14-1.75-4.14-5.04v-0.24c0-1.07,0.19-1.97,0.54-2.7c0.71-1.46,2-2.21,3.67-2.21
					c1.61,0,2.68,0.7,3.24,1.9v-4.99h2.16v13.08h-1.85l-0.24-2.04C53.77,45.17,52.67,46.09,50.92,46.09z M54.28,41.03v-0.17
					c0-1.89-0.99-3.11-2.6-3.11c-1.68,0-2.62,1.14-2.62,3.09v0.19c0,2.09,1.05,3.14,2.53,3.14C53.26,44.17,54.28,42.97,54.28,41.03z
					"/>
				<path class="st1" d="M62.93,46.14c-3.29,0-4.91-1.9-4.91-4.93v-0.24c0-1.05,0.2-1.92,0.61-2.7c0.82-1.53,2.31-2.39,4.36-2.39
					c1.68,0,2.87,0.58,3.65,1.51c0.78,0.93,1.12,2.14,1.12,3.4v1.04h-7.54c0.19,1.6,1.17,2.48,2.79,2.48c1.19,0,1.89-0.46,2.22-1.31
					h2.39C67.07,44.99,65.49,46.14,62.93,46.14z M60.25,40.08h5.3c-0.15-1.49-0.97-2.43-2.53-2.43
					C61.47,37.65,60.5,38.53,60.25,40.08z"/>
				<path class="st1" d="M76.96,43.17l-0.92,2.72h-2.28l4.4-12.11h2.31l4.5,12.11h-2.26l-0.95-2.72H76.96z M81.1,41.28l-1.66-4.76
					l-0.12-0.66l-0.12,0.66l-1.61,4.76H81.1z M82.34,29.96l-2.17,2.42h-1.75l1.49-2.42H82.34z"/>
				<path class="st1" d="M85.99,36.12h1.8l0.29,2.29c0.39-1.61,1.39-2.38,3.24-2.38h0.66v2.26h-0.97c-0.78,0-1.36,0.1-1.77,0.31
					c-0.82,0.39-1.07,1.24-1.07,2.77v4.52h-2.19V36.12z"/>
				<path class="st1" d="M95.42,43.92l-0.2,1.97h-1.89V32.81h2.16v5.18c0.58-1.29,1.72-2.11,3.31-2.11c0.82,0,1.49,0.2,2.14,0.56
					c1.26,0.75,1.99,2.17,1.99,4.36v0.25c0,3.23-1.63,5.08-4.19,5.08C97.05,46.14,95.95,45.26,95.42,43.92z M100.67,41.05v-0.2
					c0-1.95-1.04-3.09-2.56-3.09c-1.61,0-2.67,1.24-2.67,3.04v0.17c0,2.02,1.02,3.21,2.62,3.21
					C99.73,44.17,100.67,43.12,100.67,41.05z"/>
				<path class="st1" d="M104.39,41.2v-0.25c0-1.09,0.22-2.02,0.65-2.77c0.85-1.49,2.36-2.29,4.28-2.29c0.99,0,1.82,0.19,2.55,0.59
					c1.49,0.8,2.38,2.31,2.38,4.47v0.25c0,1.07-0.2,1.95-0.61,2.68c-0.85,1.48-2.33,2.26-4.31,2.26
					C106.15,46.14,104.39,44.39,104.39,41.2z M111.98,41.16v-0.22c0-2-1.04-3.16-2.65-3.16c-1.6,0-2.67,1.09-2.67,3.16v0.22
					c0,1.94,0.98,3.02,2.65,3.02C110.99,44.19,111.98,43.1,111.98,41.16z"/>
				<path class="st1" d="M115.97,32.81h2.22v13.08h-2.22V32.81z"/>
				<path class="st1" d="M124.73,46.14c-3.29,0-4.91-1.9-4.91-4.93v-0.24c0-1.05,0.2-1.92,0.61-2.7c0.82-1.53,2.31-2.39,4.36-2.39
					c1.68,0,2.87,0.58,3.65,1.51c0.78,0.93,1.12,2.14,1.12,3.4v1.04h-7.54c0.19,1.6,1.17,2.48,2.79,2.48c1.19,0,1.89-0.46,2.22-1.31
					h2.39C128.88,44.99,127.3,46.14,124.73,46.14z M122.05,40.08h5.3c-0.15-1.49-0.97-2.43-2.53-2.43
					C123.27,37.65,122.31,38.53,122.05,40.08z"/>
				<path class="st1" d="M130.54,42.66h2.41c0.2,1.15,1,1.61,2.39,1.61c1.43,0,1.99-0.48,1.99-1.26c0-0.29-0.12-0.53-0.37-0.68
					c-0.49-0.29-1.34-0.41-2.28-0.54c-0.88-0.14-1.78-0.29-2.51-0.68c-0.73-0.39-1.19-1.05-1.19-2.14c0-1.8,1.34-3.09,4.03-3.09
					c2.8,0,4.08,1.21,4.35,3.16h-2.28c-0.15-0.95-0.8-1.38-2.09-1.38c-1.39,0-1.82,0.49-1.82,1.17c0,0.29,0.12,0.53,0.37,0.68
					c0.49,0.29,1.36,0.41,2.29,0.54c0.88,0.14,1.78,0.29,2.51,0.68c0.73,0.39,1.19,1.05,1.19,2.14c0,1.89-1.36,3.26-4.25,3.26
					C132.29,46.14,130.83,44.93,130.54,42.66z"/>
			</g>
		</g>
		<g>
			<polygon class="st1" points="37.52,14.78 37.52,14.79 33.45,14.79 33.45,17.13 37.52,17.13 37.52,32.87 33.45,32.87 33.45,35.21 
				39.89,35.21 39.89,32.87 39.89,17.13 39.89,14.79 39.89,14.78 			"/>
			<rect x="25.95" y="26.11" class="st1" width="2.38" height="9.24"/>
			<polygon class="st1" points="16.97,14.88 14.6,14.88 14.6,14.9 14.6,17.24 14.6,32.98 16.97,32.98 16.97,17.24 21.04,17.24 
				21.04,14.9 16.97,14.9 			"/>
			<rect x="14.6" y="32.98" class="st1" width="6.45" height="2.34"/>
			<polygon class="st1" points="28.12,20.56 26.15,20.56 25.49,20.56 21.59,26.11 24.33,26.11 27.13,22 29.94,26.11 32.68,26.11 
				28.8,20.56 			"/>
			<polygon class="st1" points="28.12,14.92 26.15,14.92 25.49,14.92 21.59,20.48 24.33,20.48 27.13,16.36 29.94,20.48 32.68,20.48 
				28.8,14.92 			"/>
		</g>
	</g>
</g>
</svg>