<!-- Generator: Adobe Illustrator 23.0.1, SVG Export Plug-In  -->
<svg version="1.1" xmlns="http://www.w3.org/2000/svg" xmlns:xlink="http://www.w3.org/1999/xlink" x="0px" y="0px"
	 width="258.24px" height="281.51px" viewBox="0 0 258.24 281.51" style="enable-background:new 0 0 258.24 281.51;"
	 xml:space="preserve">
<style type="text/css">
	.st0{fill:#40C293;}
	.st1{fill-rule:evenodd;clip-rule:evenodd;fill:#66FD97;}
	.st2{fill:#A56C48;}
	.st3{fill:#DB9E51;}
	.st4{fill-rule:evenodd;clip-rule:evenodd;fill:none;stroke:#F1D02D;stroke-width:7;stroke-miterlimit:10;}
</style>
<defs>
</defs>
<g>
	<polygon class="st0" points="249.93,211.76 187.45,147.76 226.55,147.76 172.09,92.01 214.49,92.01 129.62,5.01 44.75,92.01
		86.14,92.01 31.69,147.76 70.79,147.76 8.31,211.76 	"/>
	<path class="st1" d="M28.62,191.01h90h1.5v-0.04c16.7-0.78,30-14.57,30-31.46c0-4.06-0.77-7.94-2.17-11.5H89.28H78.12H70.6
		L28.62,191.01z"/>
	<path class="st1"  d="M48.04,131.11h68.69h0.01h0.01h1.35v-0.03c15.18-0.71,27.28-13.25,27.28-28.61c0-3.69-0.7-7.22-1.97-10.46
		H90.07h-3.86L48.04,131.11z"/>
	<rect  x="110.62" y="211.01" class="st2" width="38" height="66"/>
	<rect  x="110.62" y="220.01" class="st3" width="21" height="57"/>
	<path class="st1" d="M58.78,77.64l56.27-57.68l16.9,15.08c0.59,0.45,1.17,0.92,1.73,1.42c10.1,9.01,11.72,23.68,3.61,32.76
		c-1.16,1.31-2.47,2.42-3.87,3.36c-4.26,3.21-9.75,5.15-15.74,5.15c-0.75,0-1.5-0.03-2.24-0.09H58.78z"/>
	<path class="st1"  d="M94.62,278.01h69.79c-10.97-1.95-22.71-3-34.9-3S105.59,276.07,94.62,278.01z"/>
	<path class="st4"  d="M148.62,211.76h101.31l-62.48-64h39.1l-54.45-55.75h42.39l-84.87-87l-84.87,87h41.39l-54.45,55.75h39.1
		l-62.48,64h102.31v8.25v55.87c-5.48,0.5-10.83,1.22-16,2.13h69.79c-5.11-0.91-10.39-1.61-15.79-2.11V211.76z"/>
</g>
</svg>